{
    "page": 1,
    "per_page": 1,
    "videos": [
        {
            "id": 3571264,
            "width": 3840,
            "height": 2160,
            "duration": 33,
            "full_res": null,
            "tags": [],
            "url": "https://www.pexels.com/video/drone-view-of-big-waves-rushing-to-the-shore-3571264/",
            "image": "https://images.pexels.com/videos/3571264/free-video-3571264.jpg?auto=compress&cs=tinysrgb&fit=crop&h=630&w=1200",
            "avg_color": null,
            "user": {
                "id": 1498112,
                "name": "Enrique Hoyos",
                "url": "https://www.pexels.com/@enriquehoyos"
            },
            "video_files": [
                {
                    "id": 368793,
                    "quality": "sd",
                    "file_type": "video/mp4",
                    "width": 960,
                    "height": 540,
                    "fps": 29.97,
                    "link": "https://player.vimeo.com/external/384761655.sd.mp4?s=383ab4dbc773cd0d5ece3af208d8f963368f67e4&profile_id=165&oauth2_token_id=57447761"
                },
                {
                    "id": 368794,
                    "quality": "sd",
                    "file_type": "video/mp4",
                    "width": 426,
                    "height": 240,
                    "fps": 29.97,
                    "link": "https://player.vimeo.com/external/384761655.sd.mp4?s=383ab4dbc773cd0d5ece3af208d8f963368f67e4&profile_id=139&oauth2_token_id=57447761"
                },
                {
                    "id": 368795,
                    "quality": "hd",
                    "file_type": "video/mp4",
                    "width": 2560,
                    "height": 1440,
                    "fps": 29.97,
                    "link": "https://player.vimeo.com/external/384761655.hd.mp4?s=5eecd63d94629aa928726912a5601a7577a3ca8a&profile_id=170&oauth2_token_id=57447761"
                },
                {
                    "id": 368796,
                    "quality": "hd",
                    "file_type": "video/mp4",
                    "width": 1280,
                    "height": 720,
                    "fps": 29.97,
                    "link": "https://player.vimeo.com/external/384761655.hd.mp4?s=5eecd63d94629aa928726912a5601a7577a3ca8a&profile_id=174&oauth2_token_id=57447761"
                },
                {
                    "id": 368797,
                    "quality": "sd",
                    "file_type": "video/mp4",
                    "width": 640,
                    "height": 360,
                    "fps": 29.97,
                    "link": "https://player.vimeo.com/external/384761655.sd.mp4?s=383ab4dbc773cd0d5ece3af208d8f963368f67e4&profile_id=164&oauth2_token_id=57447761"
                },
                {
                    "id": 368798,
                    "quality": "hd",
                    "file_type": "video/mp4",
                    "width": 3840,
                    "height": 2160,
                    "fps": 29.97,
                    "link": "https://player.vimeo.com/external/384761655.hd.mp4?s=5eecd63d94629aa928726912a5601a7577a3ca8a&profile_id=172&oauth2_token_id=57447761"
                },
                {
                    "id": 368799,
                    "quality": "hd",
                    "file_type": "video/mp4",
                    "width": 1920,
                    "height": 1080,
                    "fps": 29.97,
                    "link": "https://player.vimeo.com/external/384761655.hd.mp4?s=5eecd63d94629aa928726912a5601a7577a3ca8a&profile_id=175&oauth2_token_id=57447761"
                }
            ],
            "video_pictures": [
                {
                    "id": 815098,
                    "nr": 0,
                    "picture": "https://images.pexels.com/videos/3571264/pictures/preview-0.jpg"
                },
                {
                    "id": 815099,
                    "nr": 1,
                    "picture": "https://images.pexels.com/videos/3571264/pictures/preview-1.jpg"
                },
                {
                    "id": 815100,
                    "nr": 2,
                    "picture": "https://images.pexels.com/videos/3571264/pictures/preview-2.jpg"
                },
                {
                    "id": 815101,
                    "nr": 3,
                    "picture": "https://images.pexels.com/videos/3571264/pictures/preview-3.jpg"
                },
                {
                    "id": 815102,
                    "nr": 4,
                    "picture": "https://images.pexels.com/videos/3571264/pictures/preview-4.jpg"
                },
                {
                    "id": 815103,
                    "nr": 5,
                    "picture": "https://images.pexels.com/videos/3571264/pictures/preview-5.jpg"
                },
                {
                    "id": 815104,
                    "nr": 6,
                    "picture": "https://images.pexels.com/videos/3571264/pictures/preview-6.jpg"
                },
                {
                    "id": 815105,
                    "nr": 7,
                    "picture": "https://images.pexels.com/videos/3571264/pictures/preview-7.jpg"
                },
                {
                    "id": 815106,
                    "nr": 8,
                    "picture": "https://images.pexels.com/videos/3571264/pictures/preview-8.jpg"
                },
                {
                    "id": 815107,
                    "nr": 9,
                    "picture": "https://images.pexels.com/videos/3571264/pictures/preview-9.jpg"
                },
                {
                    "id": 815108,
                    "nr": 10,
                    "picture": "https://images.pexels.com/videos/3571264/pictures/preview-10.jpg"
                },
                {
                    "id": 815109,
                    "nr": 11,
                    "picture": "https://images.pexels.com/videos/3571264/pictures/preview-11.jpg"
                },
                {
                    "id": 815110,
                    "nr": 12,
                    "picture": "https://images.pexels.com/videos/3571264/pictures/preview-12.jpg"
                },
                {
                    "id": 815111,
                    "nr": 13,
                    "picture": "https://images.pexels.com/videos/3571264/pictures/preview-13.jpg"
                },
                {
                    "id": 815112,
                    "nr": 14,
                    "picture": "https://images.pexels.com/videos/3571264/pictures/preview-14.jpg"
                }
            ]
        }
    ],
    "total_results": 8000,
    "next_page": "https://api.pexels.com/v1/videos/search/?page=2&per_page=1&query=nature",
    "url": "https://api-server.pexels.com/search/videos/nature/"
}